{
	"icon_burger": {
		"viewBox": "0 0 15 12",
		"symbol": [
			{"path":{"d":"M0,4.519h15.063v3.013H0V4.519z M0,9.037h15.063v3.014H0V9.037z  M0,0h15.063v3.013H0V0z"}}
		]
	},
	"icon_search": {
		"viewBox": "0 0 18 18",
		"symbol": [
			{"path":{"d":"M4.64,10.377c-0.414-0.404-0.724-0.86-0.93-1.368c-0.207-0.508-0.31-1.026-0.31-1.554  s0.104-1.049,0.31-1.563s0.517-0.974,0.93-1.377s0.88-0.704,1.4-0.899c0.52-0.196,1.054-0.293,1.6-0.293  c0.547,0,1.08,0.098,1.6,0.293c0.52,0.195,0.987,0.495,1.4,0.899c0.413,0.404,0.723,0.863,0.93,1.377  c0.207,0.515,0.31,1.036,0.31,1.563s-0.103,1.045-0.31,1.554c-0.207,0.508-0.517,0.964-0.93,1.368  c-0.414,0.404-0.88,0.707-1.4,0.909c-0.52,0.202-1.053,0.303-1.6,0.303c-0.546,0-1.08-0.101-1.6-0.303  C5.52,11.084,5.053,10.782,4.64,10.377z M2.239,2.17c-0.747,0.729-1.307,1.554-1.68,2.472C0.186,5.561,0,6.495,0,7.446  s0.187,1.886,0.56,2.804c0.374,0.918,0.934,1.743,1.68,2.472c0.6,0.586,1.267,1.055,2,1.407c0.733,0.352,1.493,0.586,2.28,0.703  c0.787,0.118,1.577,0.111,2.37-0.02c0.793-0.13,1.55-0.377,2.271-0.742l3.44,3.361c0.2,0.196,0.42,0.339,0.66,0.43  s0.49,0.137,0.75,0.137c0.26,0,0.51-0.045,0.75-0.137c0.24-0.091,0.46-0.234,0.66-0.43c0.2-0.195,0.347-0.41,0.44-0.645  c0.093-0.235,0.14-0.479,0.14-0.733c0-0.254-0.047-0.499-0.14-0.733s-0.24-0.449-0.44-0.645l-3.32-3.244  c0.467-0.717,0.793-1.485,0.98-2.306c0.187-0.821,0.237-1.642,0.15-2.462c-0.086-0.821-0.313-1.619-0.68-2.394  c-0.367-0.775-0.87-1.476-1.51-2.101c-0.747-0.716-1.59-1.257-2.53-1.622C9.57,0.183,8.613,0.001,7.64,0.001  c-0.973,0-1.93,0.182-2.87,0.547S2.986,1.454,2.239,2.17z"}}
		]
	},
	"prev": {
		"viewBox": "0 0 15 25",
		"symbol": [
			{"path":{"d":"M11.933,24.999c0.759,0,1.518-0.283,2.112-0.852c1.226-1.179,1.275-3.14,0.109-4.38l-6.857-7.289l6.851-7.237  c1.169-1.236,1.127-3.197-0.097-4.38c-1.224-1.183-3.164-1.139-4.333,0.097l-8.87,9.372c-1.131,1.195-1.133,3.077-0.007,4.276  l8.87,9.43C10.314,24.675,11.122,24.999,11.933,24.999z"}}
		]
	},
	"next": {
		"viewBox": "0 0 15 25",
		"symbol": [
			{"path":{"d":"M3.067,24.999c-0.759,0-1.518-0.283-2.112-0.852c-1.226-1.179-1.275-3.14-0.109-4.38l6.857-7.289L0.853,5.241  c-1.169-1.236-1.127-3.197,0.097-4.38c1.224-1.183,3.164-1.139,4.333,0.097l8.87,9.372c1.131,1.195,1.133,3.077,0.007,4.276  l-8.87,9.43C4.686,24.675,3.878,24.999,3.067,24.999z"}}
		]
	},
	"info": {
		"viewBox": "0 0 10 16",
		"symbol": [
			{"path":{"d":"M5-0.001c-2.757,0-5.001,2.375-5.001,5.293c0,1.176,0.709,3.092,2.168,5.859  c1.032,1.957,2.047,3.589,2.089,3.657L5,16.001l0.743-1.193c0.043-0.068,1.058-1.7,2.089-3.657C9.292,8.384,10,6.468,10,5.292  C10,2.374,7.757-0.001,5-0.001z M5,8C3.568,8,2.408,6.771,2.408,5.256S3.568,2.513,5,2.513s2.592,1.229,2.592,2.744S6.432,8,5,8z"}}
		]
	},
	"print": {
		"viewBox": "0 0 19 19",
		"symbol": [
			{"path":{"d":"M5.938,14.25h5.937v1.187H5.938V14.25z"}},
			{"path":{"d":"M4.75,1.188h9.499v2.375h1.188V1.188c0-0.655-0.531-1.187-1.188-1.187H4.75c-0.655,0-1.187,0.532-1.187,1.187  v2.375H4.75V1.188z"}},
			{"path":{"d":"M5.938,11.875h7.124v1.188H5.938V11.875z"}},
			{"path":{"d":"M17.811,4.75H1.188c-0.656,0-1.187,0.532-1.187,1.188v7.124c0,0.656,0.531,1.188,1.187,1.188h2.375v3.562  c0,0.656,0.532,1.187,1.187,1.187h9.499c0.656,0,1.188-0.531,1.188-1.187V14.25h2.375c0.656,0,1.188-0.531,1.188-1.188V5.938  C18.999,5.283,18.467,4.75,17.811,4.75z M14.249,17.812H4.75v-7.124h9.499V17.812z M16.624,8.313c-0.657,0-1.188-0.531-1.188-1.187  c0-0.655,0.531-1.188,1.188-1.188c0.656,0,1.187,0.532,1.187,1.188C17.811,7.782,17.28,8.313,16.624,8.313z"}}
		]
	}
}